sieve.vcd
$comment Generated by Amaranth $end
$date 2024-06-16 16:37:12.915318 $end
$timescale 1 fs $end
$scope module bench $end
$scope module top $end
$var wire 1 ! clk $end
$var wire 1 " rst $end
$var string 1 # fsm_state $end
$var wire 24 $ isPrimeArray $end
$var wire 20 % p $end
$var wire 20 & prime $end
$var wire 24 ' bits_in $end
$var wire 1 ( run $end
$var wire 1 ) done $end
$var wire 24 * bits_out $end
$var wire 20 + prime_initial $end
$var wire 20 , n $end
$var wire 24 - bits_in$12 $end
$var wire 20 . start $end
$scope module U$0 $end
$var wire 1 ! clk $end
$var wire 1 " rst $end
$var wire 20 % p $end
$var wire 24 ' bits_in $end
$var wire 1 ( run $end
$var wire 1 ) done $end
$var wire 24 * bits_out $end
$var wire 24 / accum $end
$var string 1 0 fsm_state $end
$var wire 20 1 i $end
$upscope $end
$scope module U$1 $end
$var wire 20 , n $end
$var wire 24 - bits_in $end
$var wire 20 . start $end
$upscope $end
$upscope $end
$upscope $end
$enddefinitions $end
#0
$dumpvars
0!
0"
sInitializing/0 #
b111111111111111111111111 $
b0 %
b10 &
b0 '
0(
0)
b0 *
b10 +
b0 ,
b0 -
b0 .
b0 /
sIdle/0 0
b0 1
$end
#500000000000000
1!
b111111111111111111111110 $
sstarting/1 #
#1000000000000000
0!
#1500000000000000
1!
b111111111111111111111110 '
1(
b10 %
swaiting/2 #
#2000000000000000
0!
#2500000000000000
1!
b100 1
sFlip/1 0
b111111111111111111111110 /
b111111111111111111111110 *
#3000000000000000
0!
#3500000000000000
1!
b110 1
b111111111111111111110110 /
b111111111111111111110110 *
#4000000000000000
0!
#4500000000000000
1!
b1000 1
b111111111111111111010110 /
b111111111111111111010110 *
#5000000000000000
0!
#5500000000000000
1!
b1010 1
b111111111111111101010110 /
b111111111111111101010110 *
#6000000000000000
0!
#6500000000000000
1!
b1100 1
b111111111111110101010110 /
b111111111111110101010110 *
#7000000000000000
0!
#7500000000000000
1!
b1110 1
b111111111111010101010110 /
b111111111111010101010110 *
#8000000000000000
0!
#8500000000000000
1!
b10000 1
b111111111101010101010110 /
b111111111101010101010110 *
#9000000000000000
0!
#9500000000000000
1!
b10010 1
b111111110101010101010110 /
b111111110101010101010110 *
#10000000000000000
0!
#10500000000000000
1!
b10100 1
b111111010101010101010110 /
b111111010101010101010110 *
#11000000000000000
0!
#11500000000000000
1!
b10110 1
b111101010101010101010110 /
b111101010101010101010110 *
#12000000000000000
0!
#12500000000000000
1!
b11000 1
b110101010101010101010110 /
b110101010101010101010110 *
#13000000000000000
0!
#13500000000000000
1!
b11010 1
b10101010101010101010110 /
b10101010101010101010110 *
#14000000000000000
0!
#14500000000000000
1!
sDone/2 0
1)
#15000000000000000
0!
#15500000000000000
1!
sgetting/3 #
#16000000000000000
0!
#16500000000000000
1!
0(
b10101010101010101010110 $
ssearching/4 #
b10101010101010101010110 -
b11 .
b11 ,
#17000000000000000
0!
#17500000000000000
1!
sIdle/0 0
scheck\x20conditions/5 #
b11 &
b0 -
0)
b0 .
b0 ,
#18000000000000000
0!
#18500000000000000
1!
sstarting/1 #
#19000000000000000
0!
#19500000000000000
1!
b10101010101010101010110 '
1(
b11 %
swaiting/2 #
#20000000000000000
0!
#20500000000000000
1!
b110 1
sFlip/1 0
#21000000000000000
0!
#21500000000000000
1!
b1001 1
#22000000000000000
0!
#22500000000000000
1!
b1100 1
b10101010101010001010110 /
b10101010101010001010110 *
#23000000000000000
0!
#23500000000000000
1!
b1111 1
#24000000000000000
0!
#24500000000000000
1!
b10010 1
b10101010001010001010110 /
b10101010001010001010110 *
#25000000000000000
0!
#25500000000000000
1!
b10101 1
#26000000000000000
0!
#26500000000000000
1!
b11000 1
b10001010001010001010110 /
b10001010001010001010110 *
#27000000000000000
0!
#27500000000000000
1!
b11011 1
#28000000000000000
0!
#28500000000000000
1!
sDone/2 0
1)
#29000000000000000
0!
#29500000000000000
1!
sgetting/3 #
#30000000000000000
0!
#30500000000000000
1!
0(
b10001010001010001010110 $
ssearching/4 #
b10001010001010001010110 -
b100 .
b101 ,
#31000000000000000
0!
#31500000000000000
1!
sIdle/0 0
scheck\x20conditions/5 #
b101 &
b11 +
b0 -
0)
b0 .
b0 ,
#32000000000000000
0!
#32500000000000000
1!
sstarting/1 #
#33000000000000000
0!
#33500000000000000
1!
b10001010001010001010110 '
1(
b101 %
swaiting/2 #
#34000000000000000
0!
#34500000000000000
1!
b1010 1
sFlip/1 0
#35000000000000000
0!
#35500000000000000
1!
b1111 1
#36000000000000000
0!
#36500000000000000
1!
b10100 1
#37000000000000000
0!
#37500000000000000
1!
b11001 1
#38000000000000000
0!
#38500000000000000
1!
sDone/2 0
1)
#39000000000000000
0!
#39500000000000000
1!
sgetting/3 #
#40000000000000000
0!
#40500000000000000
1!
0(
ssearching/4 #
b10001010001010001010110 -
b110 .
b111 ,
#41000000000000000
0!
#41500000000000000
1!
sIdle/0 0
scheck\x20conditions/5 #
b111 &
b101 +
b0 -
0)
b0 .
b0 ,
#42000000000000000
0!
#42500000000000000
1!
sstarting/1 #
#43000000000000000
0!
#43500000000000000
1!
1(
b111 %
swaiting/2 #
#44000000000000000
0!
#44500000000000000
1!
b1110 1
sFlip/1 0
#45000000000000000
0!
#45500000000000000
1!
b10101 1
#46000000000000000
0!
#46500000000000000
1!
b11100 1
#47000000000000000
0!
#47500000000000000
1!
sDone/2 0
1)
#48000000000000000
0!
#48500000000000000
1!
sgetting/3 #
#49000000000000000
0!
#49500000000000000
1!
0(
ssearching/4 #
b10001010001010001010110 -
b1000 .
b1000 ,
#50000000000000000
0!
#50500000000000000
1!
sIdle/0 0
scheck\x20conditions/5 #
b1000 &
b111 +
b0 -
0)
b0 .
b0 ,
#51000000000000000
0!
#51500000000000000
1!
sstarting/1 #
#52000000000000000
0!
#52500000000000000
1!
1(
b1000 %
swaiting/2 #
#53000000000000000
0!
#53500000000000000
1!
b10000 1
sFlip/1 0
#54000000000000000
0!
#54500000000000000
1!
b11000 1
#55000000000000000
0!
#55500000000000000
1!
b100000 1
#56000000000000000
0!
#56500000000000000
1!
sDone/2 0
1)
#57000000000000000
0!
#57500000000000000
1!
sgetting/3 #
#58000000000000000
0!
#58500000000000000
1!
0(
ssearching/4 #
b10001010001010001010110 -
b1001 .
b1001 ,
#59000000000000000
0!
#59500000000000000
1!
sIdle/0 0
scheck\x20conditions/5 #
b1001 &
b1000 +
b0 -
0)
b0 .
b0 ,
#60000000000000000
0!
#60500000000000000
1!
sstarting/1 #
#61000000000000000
0!
#61500000000000000
1!
1(
b1001 %
swaiting/2 #
#62000000000000000
0!
#62500000000000000
1!
b10010 1
sFlip/1 0
#63000000000000000
0!
#63500000000000000
1!
b11011 1
#64000000000000000
0!
#64500000000000000
1!
sDone/2 0
1)
#65000000000000000
0!
#65500000000000000
1!
sgetting/3 #
#66000000000000000
0!
#66500000000000000
1!
0(
ssearching/4 #
b10001010001010001010110 -
b1010 .
b1011 ,
#67000000000000000
0!
#67500000000000000
1!
sIdle/0 0
scheck\x20conditions/5 #
b1011 &
b1001 +
b0 -
0)
b0 .
b0 ,
#68000000000000000
0!
#68500000000000000
1!
sstarting/1 #
#69000000000000000
0!
#69500000000000000
1!
1(
b1011 %
swaiting/2 #
#70000000000000000
0!
#70500000000000000
1!
b10110 1
sFlip/1 0
#71000000000000000
0!
#71500000000000000
1!
b100001 1
#72000000000000000
0!
#72500000000000000
1!
sDone/2 0
1)
#73000000000000000
0!
#73500000000000000
1!
sgetting/3 #
#74000000000000000
0!
#74500000000000000
1!
0(
ssearching/4 #
b10001010001010001010110 -
b1100 .
b1101 ,
#75000000000000000
0!
#75500000000000000
1!
sIdle/0 0
scheck\x20conditions/5 #
b1101 &
b1011 +
b0 -
0)
b0 .
b0 ,
#76000000000000000
0!
#76500000000000000
1!
sstarting/1 #
#77000000000000000
0!
#77500000000000000
1!
1(
b1101 %
swaiting/2 #
#78000000000000000
0!
#78500000000000000
1!
b11010 1
sFlip/1 0
#79000000000000000
0!
#79500000000000000
1!
sDone/2 0
1)
#80000000000000000
0!
#80500000000000000
1!
sgetting/3 #
#81000000000000000
0!
#81500000000000000
1!
0(
ssearching/4 #
b10001010001010001010110 -
b1110 .
b1110 ,
#82000000000000000
0!
#82500000000000000
1!
sIdle/0 0
scheck\x20conditions/5 #
b1110 &
b1101 +
b0 -
0)
b0 .
b0 ,
#83000000000000000
0!
#83500000000000000
1!
sstarting/1 #
#84000000000000000
0!
#84500000000000000
1!
1(
b1110 %
swaiting/2 #
#85000000000000000
0!
#85500000000000000
1!
b11100 1
sFlip/1 0
#86000000000000000
0!
#86500000000000000
1!
sDone/2 0
1)
#87000000000000000
0!
#87500000000000000
1!
sgetting/3 #
#88000000000000000
0!
#88500000000000000
1!
0(
ssearching/4 #
b10001010001010001010110 -
b1111 .
b1111 ,
#89000000000000000
0!
#89500000000000000
1!
sIdle/0 0
scheck\x20conditions/5 #
b1111 &
b1110 +
b0 -
0)
b0 .
b0 ,
#90000000000000000
0!
#90500000000000000
1!
sstarting/1 #
#91000000000000000
0!
#91500000000000000
1!
1(
b1111 %
swaiting/2 #
#92000000000000000
0!
#92500000000000000
1!
b11110 1
sFlip/1 0
#93000000000000000
0!
#93500000000000000
1!
sDone/2 0
1)
#94000000000000000
0!
#94500000000000000
1!
sgetting/3 #
#95000000000000000
0!
#95500000000000000
1!
0(
ssearching/4 #
b10001010001010001010110 -
b10000 .
b10001 ,
#96000000000000000
0!
#96500000000000000
1!
sIdle/0 0
scheck\x20conditions/5 #
b10001 &
b1111 +
b0 -
0)
b0 .
b0 ,
#97000000000000000
0!
#97500000000000000
1!
sstarting/1 #
#98000000000000000
0!
#98500000000000000
1!
1(
b10001 %
swaiting/2 #
#99000000000000000
0!
#99500000000000000
1!
b100010 1
sFlip/1 0
